[{ "Status": "Demo", "Channel Partner Name": "Ace Technologies", "Vertical Type": "Movies", "System Integrators": "NA", "CP Direct Customers": "10", "Date Created": "10/06/2017" },
    { "Status": "Live", "Channel Partner Name": "Amazon CloudFront", "Vertical Type": "Ebooks, Games", "System Integrators": "10", "CP Direct Customers": "NA", "Date Created": "01/05/2018" },
    { "Status": "Draft", "Channel Partner Name": "Amazon CloudFront", "Vertical Type": "Akami Tech", "System Integrators": "12", "CP Direct Customers": "09", "Date Created": "12/02/2018" },
    { "Status": "Draft", "Channel Partner Name": "Napster", "Vertical Type": "Games", "System Integrators": "45", "CP Direct Customers": "55", "Date Created": "28/01/2017" },
    { "Status": "Live", "Channel Partner Name": "Vimmi", "Vertical Type": "Ebooks, Games", "System Integrators": "54", "CP Direct Customers": "NA", "Date Created": "30/06/2018" },
    { "Status": "Demo", "Channel Partner Name": "Ace Technologies", "Vertical Type": "Movies", "System Integrators": "NA", "CP Direct Customers": "10", "Date Created": "10/06/2017" },
    { "Status": "Live", "Channel Partner Name": "Amazon CloudFront", "Vertical Type": "Ebooks, Games", "System Integrators": "10", "CP Direct Customers": "NA", "Date Created": "01/05/2018" },
    { "Status": "Demo", "Channel Partner Name": "Amazon CloudFront", "Vertical Type": "Akami Tech", "System Integrators": "12", "CP Direct Customers": "09", "Date Created": "12/02/2018" },
    { "Status": "Draft", "Channel Partner Name": "Napster", "Vertical Type": "Games", "System Integrators": "45", "CP Direct Customers": "55", "Date Created": "28/01/2017" },
    { "Status": "Demo", "Channel Partner Name": "Vimmi", "Vertical Type": "Ebooks, Games", "System Integrators": "54", "CP Direct Customers": "NA", "Date Created": "30/06/2018" },
    { "Status": "Live", "Channel Partner Name": "Ace Technologies", "Vertical Type": "Movies", "System Integrators": "NA", "CP Direct Customers": "10", "Date Created": "10/06/2017" },
    { "Status": "Demo", "Channel Partner Name": "Amazon CloudFront", "Vertical Type": "Ebooks, Games", "System Integrators": "10", "CP Direct Customers": "NA", "Date Created": "01/05/2018" },
    { "Status": "Draft", "Channel Partner Name": "Amazon CloudFront", "Vertical Type": "Akami Tech", "System Integrators": "12", "CP Direct Customers": "09", "Date Created": "12/02/2018" },
    { "Status": "Demo", "Channel Partner Name": "Napster", "Vertical Type": "Games", "System Integrators": "45", "CP Direct Customers": "55", "Date Created": "28/01/2017" },
    { "Status": "Live", "Channel Partner Name": "Vimmi", "Vertical Type": "Ebooks, Games", "System Integrators": "54", "CP Direct Customers": "NA", "Date Created": "30/06/2018" },
    { "Status": "Demo", "Channel Partner Name": "Ace Technologies", "Vertical Type": "Movies", "System Integrators": "NA", "CP Direct Customers": "10", "Date Created": "10/06/2017" },
    { "Status": "Draft", "Channel Partner Name": "Amazon CloudFront", "Vertical Type": "Ebooks, Games", "System Integrators": "10", "CP Direct Customers": "NA", "Date Created": "01/05/2018" },
    { "Status": "Draft", "Channel Partner Name": "Amazon CloudFront", "Vertical Type": "Akami Tech", "System Integrators": "12", "CP Direct Customers": "09", "Date Created": "12/02/2018" },
    { "Status": "Live", "Channel Partner Name": "Napster", "Vertical Type": "Games", "System Integrators": "45", "CP Direct Customers": "55", "Date Created": "28/01/2017" },
    { "Status": "Demo", "Channel Partner Name": "Vimmi", "Vertical Type": "Ebooks, Games", "System Integrators": "54", "CP Direct Customers": "NA", "Date Created": "30/06/2018" },
    { "Status": "Draft", "Channel Partner Name": "Ace Technologies", "Vertical Type": "Movies", "System Integrators": "NA", "CP Direct Customers": "10", "Date Created": "10/06/2017" },
    { "Status": "Live", "Channel Partner Name": "Amazon CloudFront", "Vertical Type": "Ebooks, Games", "System Integrators": "10", "CP Direct Customers": "NA", "Date Created": "01/05/2018" },
    { "Status": "Demo", "Channel Partner Name": "Amazon CloudFront", "Vertical Type": "Akami Tech", "System Integrators": "12", "CP Direct Customers": "09", "Date Created": "12/02/2018" },
    { "Status": "Demo", "Channel Partner Name": "Napster", "Vertical Type": "Games", "System Integrators": "45", "CP Direct Customers": "55", "Date Created": "28/01/2017" },
    { "Status": "Draft", "Channel Partner Name": "Vimmi", "Vertical Type": "Ebooks, Games", "System Integrators": "54", "CP Direct Customers": "NA", "Date Created": "30/06/2018" }
]