[{ "Status": "Demo", "Audience Name": "Reactive your subscription", "Audience Rule": "People who listened to Rihanna in last week" },
    { "Status": "Live", "Audience Name": "We think you would like this", "Audience Rule": "Lorem ipsum dolor sit amet" },
    { "Status": "Draft", "Audience Name": "Reactive your subscription", "Audience Rule": "People who listened to Taylor Swift in last month" },
    { "Status": "Live", "Audience Name": "Personalised for you", "Audience Rule": "People who listened to Rihanna in last week" },
    { "Status": "Live", "Audience Name": "Personalised for you", "Audience Rule": "People who listened to Rihanna in last week" },
    { "Status": "Demo", "Audience Name": "We think you would like this", "Audience Rule": "Lorem ipsum dolor sit amet" },
    { "Status": "Draft", "Audience Name": "Reactive your subscription", "Audience Rule": "People who listened to Taylor Swift in last month" },
    { "Status": "Demo", "Audience Name": "We think you would like this", "Audience Rule": "People who listened to Rihanna in last week" },
    { "Status": "Live", "Audience Name": "Reactive your subscription", "Audience Rule": "People who listened to Rihanna in last week" },
    { "Status": "Draft", "Audience Name": "We think you would like this", "Audience Rule": "Lorem ipsum dolor sit amet" },
    { "Status": "Live", "Audience Name": "Personalised for you", "Audience Rule": "People who listened to Taylor Swift in last month" },
    { "Status": "Live", "Audience Name": "We think you would like this", "Audience Rule": "People who listened to Rihanna in last week" },
    { "Status": "Demo", "Audience Name": "Reactive your subscription", "Audience Rule": "People who listened to Rihanna in last week" },
    { "Status": "Draft", "Audience Name": "Personalised for you", "Audience Rule": "Lorem ipsum dolor sit amet" },
    { "Status": "Demo", "Audience Name": "Reactive your subscription", "Audience Rule": "People who listened to Taylor Swift in last month" },
    { "Status": "Live", "Audience Name": "We think you would like this", "Audience Rule": "People who listened to Rihanna in last week" },
    { "Status": "Draft", "Audience Name": "Reactive your subscription", "Audience Rule": "People who listened to Rihanna in last week" },
    { "Status": "Live", "Audience Name": "We think you would like this", "Audience Rule": "Lorem ipsum dolor sit amet" },
    { "Status": "Live", "Audience Name": "Personalised for you", "Audience Rule": "People who listened to Taylor Swift in last month" },
    { "Status": "Demo", "Audience Name": "We think you would like this", "Audience Rule": "People who listened to Rihanna in last week" },
    { "Status": "Draft", "Audience Name": "Reactive your subscription", "Audience Rule": "People who listened to Rihanna in last week" },
    { "Status": "Demo", "Audience Name": "We think you would like this", "Audience Rule": "Lorem ipsum dolor sit amet" },
    { "Status": "Live", "Audience Name": "Reactive your subscription", "Audience Rule": "People who listened to Taylor Swift in last month" },
    { "Status": "Live", "Audience Name": "We think you would like this", "Audience Rule": "People who listened to Rihanna in last week" },
    { "Status": "Demo", "Audience Name": "Reactive your subscription", "Audience Rule": "People who listened to Rihanna in last week" },
    { "Status": "Draft", "Audience Name": "We think you would like this", "Audience Rule": "Lorem ipsum dolor sit amet" },
    { "Status": "Demo", "Audience Name": "Reactive your subscription", "Audience Rule": "People who listened to Taylor Swift in last month" },
    { "Status": "Live", "Audience Name": "We think you would like this", "Audience Rule": "People who listened to Rihanna in last week" },
    { "Status": "Draft", "Audience Name": "Reactive your subscription", "Audience Rule": "People who listened to Rihanna in last week" },
    { "Status": "Live", "Audience Name": "We think you would like this", "Audience Rule": "Lorem ipsum dolor sit amet" },
    { "Status": "Live", "Audience Name": "Reactive your subscription", "Audience Rule": "People who listened to Taylor Swift in last month" },
    { "Status": "Demo", "Audience Name": "We think you would like this", "Audience Rule": "People who listened to Rihanna in last week" },
    { "Status": "Live", "Audience Name": "Reactive your subscription", "Audience Rule": "People who listened to Rihanna in last week" },
    { "Status": "Demo", "Audience Name": "We think you would like this", "Audience Rule": "Lorem ipsum dolor sit amet" },
    { "Status": "Draft", "Audience Name": "Reactive your subscription", "Audience Rule": "People who listened to Taylor Swift in last month" },
    { "Status": "Demo", "Audience Name": "We think you would like this", "Audience Rule": "People who listened to Rihanna in last week" },
    { "Status": "Live", "Audience Name": "Reactive your subscription", "Audience Rule": "People who listened to Rihanna in last week" },
    { "Status": "Draft", "Audience Name": "We think you would like this", "Audience Rule": "Lorem ipsum dolor sit amet" },
    { "Status": "Live", "Audience Name": "Reactive your subscription", "Audience Rule": "People who listened to Taylor Swift in last month" },
    { "Status": "Live", "Audience Name": "We think you would like this", "Audience Rule": "People who listened to Rihanna in last week" },
    { "Status": "Demo", "Audience Name": "Reactive your subscription", "Audience Rule": "People who listened to Rihanna in last week" },
    { "Status": "Draft", "Audience Name": "We think you would like this", "Audience Rule": "Lorem ipsum dolor sit amet" },
    { "Status": "Live", "Audience Name": "Reactive your subscription", "Audience Rule": "People who listened to Taylor Swift in last month" },
    { "Status": "Live", "Audience Name": "We think you would like this", "Audience Rule": "People who listened to Rihanna in last week" },
    { "Status": "Demo", "Audience Name": "Reactive your subscription", "Audience Rule": "People who listened to Rihanna in last week" },
    { "Status": "Draft", "Audience Name": "We think you would like this", "Audience Rule": "Lorem ipsum dolor sit amet" },
    { "Status": "Demo", "Audience Name": "Reactive your subscription", "Audience Rule": "People who listened to Taylor Swift in last month" },
    { "Status": "Live", "Audience Name": "We think you would like this", "Audience Rule": "People who listened to Rihanna in last week" },
    { "Status": "Draft", "Audience Name": "Reactive your subscription", "Audience Rule": "People who listened to Rihanna in last week" },
    { "Status": "Live", "Audience Name": "We think you would like this", "Audience Rule": "Lorem ipsum dolor sit amet" },
    { "Status": "Live", "Audience Name": "Reactive your subscription", "Audience Rule": "People who listened to Taylor Swift in last month" },
    { "Status": "Demo", "Audience Name": "We think you would like this", "Audience Rule": "People who listened to Rihanna in last week" },
    { "Status": "Draft", "Audience Name": "Reactive your subscription", "Audience Rule": "People who listened to Rihanna in last week" },
    { "Status": "Demo", "Audience Name": "We think you would like this", "Audience Rule": "Lorem ipsum dolor sit amet" },
    { "Status": "Live", "Audience Name": "Reactive your subscription", "Audience Rule": "People who listened to Taylor Swift in last month" },
    { "Status": "Draft", "Audience Name": "We think you would like this", "Audience Rule": "People who listened to Rihanna in last week" },
    { "Status": "Live", "Audience Name": "Reactive your subscription", "Audience Rule": "People who listened to Rihanna in last week" },
    { "Status": "Live", "Audience Name": "We think you would like this", "Audience Rule": "Lorem ipsum dolor sit amet" },
    { "Status": "Demo", "Audience Name": "Reactive your subscription", "Audience Rule": "People who listened to Taylor Swift in last month" },
    { "Status": "Draft", "Audience Name": "We think you would like this", "Audience Rule": "People who listened to Rihanna in last week" }
]