[{ "Status": "Demo", "Goal Name": "Increase Consumption by #value", "Category": "Finance", "KPIs": 10, "Product Type": "Movies" },
    { "Status": "Live", "Goal Name": "Reach #quantity #artist Listeners", "Category": "Marketing", "KPIs": "NA", "Product Type": "Ebook" },
    { "Status": "Draft", "Goal Name": "Increase Consumption by #value", "Category": "Customer Care", "KPIs": "02", "Product Type": "Movies, Ebook" },
    { "Status": "Live", "Goal Name": "Reach #quantity #artist Listeners", "Category": "IT", "KPIs": 41, "Product Type": "Subscription" },
    { "Status": "Live", "Goal Name": "Increase Consumption by #value", "Category": "Finance", "KPIs": 10, "Product Type": "Movies" },
    { "Status": "Demo", "Goal Name": "Reach #quantity #artist Listeners", "Category": "Marketing", "KPIs": "NA", "Product Type": "Ebook" },
    { "Status": "Draft", "Goal Name": "Increase Consumption by #value", "Category": "Customer Care", "KPIs": "02", "Product Type": "Movies, Ebook" },
    { "Status": "Demo", "Goal Name": "Reach #quantity #artist Listeners", "Category": "IT", "KPIs": 41, "Product Type": "Subscription" },
    { "Status": "Live", "Goal Name": "Increase Consumption by #value", "Category": "Finance", "KPIs": 10, "Product Type": "Movies" },
    { "Status": "Draft", "Goal Name": "Reach #quantity #artist Listeners", "Category": "Marketing", "KPIs": "NA", "Product Type": "Ebook" },
    { "Status": "Live", "Goal Name": "Increase Consumption by #value", "Category": "Customer Care", "KPIs": "02", "Product Type": "Movies, Ebook" },
    { "Status": "Live", "Goal Name": "Reach #quantity #artist Listeners", "Category": "IT", "KPIs": 41, "Product Type": "Subscription" },
    { "Status": "Demo", "Goal Name": "Increase Consumption by #value", "Category": "Finance", "KPIs": 10, "Product Type": "Movies" },
    { "Status": "Draft", "Goal Name": "Reach #quantity #artist Listeners", "Category": "Marketing", "KPIs": "NA", "Product Type": "Ebook" },
    { "Status": "Demo", "Goal Name": "Increase Consumption by #value", "Category": "Customer Care", "KPIs": "02", "Product Type": "Movies, Ebook" },
    { "Status": "Live", "Goal Name": "Reach #quantity #artist Listeners", "Category": "IT", "KPIs": 41, "Product Type": "Subscription" },
    { "Status": "Draft", "Goal Name": "Increase Consumption by #value", "Category": "Finance", "KPIs": 10, "Product Type": "Movies" },
    { "Status": "Live", "Goal Name": "Reach #quantity #artist Listeners", "Category": "Marketing", "KPIs": "NA", "Product Type": "Ebook" },
    { "Status": "Live", "Goal Name": "Increase Consumption by #value", "Category": "Customer Care", "KPIs": "02", "Product Type": "Movies, Ebook" },
    { "Status": "Demo", "Goal Name": "Reach #quantity #artist Listeners", "Category": "IT", "KPIs": 41, "Product Type": "Subscription" },
    { "Status": "Draft", "Goal Name": "Increase Consumption by #value", "Category": "Finance", "KPIs": 10, "Product Type": "Movies" },
    { "Status": "Demo", "Goal Name": "Reach #quantity #artist Listeners", "Category": "Marketing", "KPIs": "NA", "Product Type": "Ebook" },
    { "Status": "Live", "Goal Name": "Increase Consumption by #value", "Category": "Customer Care", "KPIs": "02", "Product Type": "Movies, Ebook" },
    { "Status": "Live", "Goal Name": "Reach #quantity #artist Listeners", "Category": "IT", "KPIs": 41, "Product Type": "Subscription" },
    { "Status": "Demo", "Goal Name": "Increase Consumption by #value", "Category": "Finance", "KPIs": 10, "Product Type": "Movies" },
    { "Status": "Draft", "Goal Name": "Reach #quantity #artist Listeners", "Category": "Marketing", "KPIs": "NA", "Product Type": "Ebook" },
    { "Status": "Demo", "Goal Name": "Increase Consumption by #value", "Category": "Customer Care", "KPIs": "02", "Product Type": "Movies, Ebook" },
    { "Status": "Live", "Goal Name": "Reach #quantity #artist Listeners", "Category": "IT", "KPIs": 41, "Product Type": "Subscription" },
    { "Status": "Draft", "Goal Name": "Increase Consumption by #value", "Category": "Finance", "KPIs": 10, "Product Type": "Movies" },
    { "Status": "Live", "Goal Name": "Reach #quantity #artist Listeners", "Category": "Marketing", "KPIs": "NA", "Product Type": "Ebook" },
    { "Status": "Live", "Goal Name": "Increase Consumption by #value", "Category": "Customer Care", "KPIs": "02", "Product Type": "Movies, Ebook" },
    { "Status": "Demo", "Goal Name": "Reach #quantity #artist Listeners", "Category": "IT", "KPIs": 41, "Product Type": "Subscription" },
    { "Status": "Live", "Goal Name": "Increase Consumption by #value", "Category": "Finance", "KPIs": 10, "Product Type": "Movies" },
    { "Status": "Demo", "Goal Name": "Reach #quantity #artist Listeners", "Category": "Marketing", "KPIs": "NA", "Product Type": "Ebook" },
    { "Status": "Draft", "Goal Name": "Increase Consumption by #value", "Category": "Customer Care", "KPIs": "02", "Product Type": "Movies, Ebook" },
    { "Status": "Demo", "Goal Name": "Reach #quantity #artist Listeners", "Category": "IT", "KPIs": 41, "Product Type": "Subscription" },
    { "Status": "Live", "Goal Name": "Increase Consumption by #value", "Category": "Finance", "KPIs": 10, "Product Type": "Movies" },
    { "Status": "Draft", "Goal Name": "Reach #quantity #artist Listeners", "Category": "Marketing", "KPIs": "NA", "Product Type": "Ebook" },
    { "Status": "Live", "Goal Name": "Increase Consumption by #value", "Category": "Customer Care", "KPIs": "02", "Product Type": "Movies, Ebook" },
    { "Status": "Live", "Goal Name": "Reach #quantity #artist Listeners", "Category": "IT", "KPIs": 41, "Product Type": "Subscription" },
    { "Status": "Demo", "Goal Name": "Increase Consumption by #value", "Category": "Finance", "KPIs": 10, "Product Type": "Movies" },
    { "Status": "Draft", "Goal Name": "Reach #quantity #artist Listeners", "Category": "Marketing", "KPIs": "NA", "Product Type": "Ebook" },
    { "Status": "Live", "Goal Name": "Increase Consumption by #value", "Category": "Customer Care", "KPIs": "02", "Product Type": "Movies, Ebook" },
    { "Status": "Live", "Goal Name": "Reach #quantity #artist Listeners", "Category": "IT", "KPIs": 41, "Product Type": "Subscription" },
    { "Status": "Demo", "Goal Name": "Increase Consumption by #value", "Category": "Finance", "KPIs": 10, "Product Type": "Movies" },
    { "Status": "Draft", "Goal Name": "Reach #quantity #artist Listeners", "Category": "Marketing", "KPIs": "NA", "Product Type": "Ebook" },
    { "Status": "Demo", "Goal Name": "Increase Consumption by #value", "Category": "Customer Care", "KPIs": "02", "Product Type": "Movies, Ebook" },
    { "Status": "Live", "Goal Name": "Reach #quantity #artist Listeners", "Category": "IT", "KPIs": 41, "Product Type": "Subscription" },
    { "Status": "Draft", "Goal Name": "Increase Consumption by #value", "Category": "Finance", "KPIs": 10, "Product Type": "Movies" },
    { "Status": "Live", "Goal Name": "Reach #quantity #artist Listeners", "Category": "Marketing", "KPIs": "NA", "Product Type": "Ebook" },
    { "Status": "Live", "Goal Name": "Increase Consumption by #value", "Category": "Customer Care", "KPIs": "02", "Product Type": "Movies, Ebook" },
    { "Status": "Demo", "Goal Name": "Reach #quantity #artist Listeners", "Category": "IT", "KPIs": 41, "Product Type": "Subscription" },
    { "Status": "Draft", "Goal Name": "Increase Consumption by #value", "Category": "Finance", "KPIs": 10, "Product Type": "Movies" },
    { "Status": "Demo", "Goal Name": "Reach #quantity #artist Listeners", "Category": "Marketing", "KPIs": "NA", "Product Type": "Ebook" },
    { "Status": "Live", "Goal Name": "Increase Consumption by #value", "Category": "Customer Care", "KPIs": "02", "Product Type": "Movies, Ebook" },
    { "Status": "Draft", "Goal Name": "Reach #quantity #artist Listeners", "Category": "IT", "KPIs": 41, "Product Type": "Subscription" },
    { "Status": "Live", "Goal Name": "Increase Consumption by #value", "Category": "Finance", "KPIs": 10, "Product Type": "Movies" },
    { "Status": "Live", "Goal Name": "Reach #quantity #artist Listeners", "Category": "Marketing", "KPIs": "NA", "Product Type": "Ebook" },
    { "Status": "Demo", "Goal Name": "Increase Consumption by #value", "Category": "Customer Care", "KPIs": "02", "Product Type": "Movies, Ebook" },
    { "Status": "Draft", "Goal Name": "Reach #quantity #artist Listeners", "Category": "IT", "KPIs": 41, "Product Type": "Subscription" }
]